 .----------------.  .-----------------. .----------------.  .----------------.
| .--------------. || .--------------. || .--------------. || .--------------. |
| |  _________   | || | ____  _____  | || |  ________    | || |  _________   | |
| | |_   ___  |  | || ||_   \|_   _| | || | |_   ___ `.  | || | |_   ___  |  | |
| |   | |_  \_|  | || |  |   \ | |   | || |   | |   `. \ | || |   | |_  \_|  | |
| |   |  _|  _   | || |  | |\ \| |   | || |   | |    | | | || |   |  _|  _   | |
| |  _| |___/ |  | || | _| |_\   |_  | || |  _| |___.' / | || |  _| |___/ |  | |
| | |_________|  | || ||_____|\____| | || | |________.'  | || | |_________|  | |
| |              | || |              | || |              | || |              | |
| '--------------' || '--------------' || '--------------' || '--------------' |
 '----------------'  '----------------'  '----------------'  '----------------'